Geospatial visualizations with R
…
<img src="geoviz-slides_files/figure-html/urbnmapr-1.png" width="864" />

---

# Points

```r
crimes_homicide <- filter(.data = crimes, `Primary Type` == "HOMICIDE")
crimes_homicide
```

```
## # A tibble: 675 × 22
##          ID `Case Number` Date       Block    IUCR  `Primary Type` Description  
##       <dbl> <chr>         <chr>      <chr>    <chr> <chr>          <chr>        
##  1 10826397 JA119425      01/18/201… 023XX W… 0142  HOMICIDE       RECKLESS HOM…
##  2 10836558 JA138326      02/01/201… 013XX S… 0142  HOMICIDE       RECKLESS HOM…
##  3 11177987 JA549346      12/14/201… 038XX W… 0142  HOMICIDE       RECKLESS HOM…
##  4    23059 JA100252      01/01/201… 046XX N… 0110  HOMICIDE       FIRST DEGREE…
##  5    23060 JA100278      01/01/201… 046XX W… 0110  HOMICIDE       FIRST DEGREE…
##  6    23061 JA102602      01/03/201… 034XX W… 0110  HOMICIDE       FIRST DEGREE…
##  7    23062 JA103468      01/03/201… 032XX W… 0110  HOMICIDE       FIRST DEGREE…
##  8    23063 JA102602      01/04/201… 034XX W… 0110  HOMICIDE       FIRST DEGREE…
##  9    23064 JA103468      01/04/201… 032XX W… 0110  HOMICIDE       FIRST DEGREE…
## 10    23066 HZ564892      01/06/201… 086XX S… 0110  HOMICIDE       FIRST DEGREE…
## # … with 665 more rows, and 15 more variables: Location Description <chr>,
## #   Arrest <lgl>, Domestic <lgl>, Beat <chr>, District <chr>, Ward <dbl>,
## #   Community Area <dbl>, FBI Code <chr>, X Coordinate <dbl>,
## #   Y Coordinate <dbl>, Year <dbl>, Updated On <chr>, Latitude <dbl>,
## #   Longitude <dbl>, Location <chr>
```
…
# Converting to `sf` data frame

```r
crimes_homicide_sf <- st_as_sf(x = crimes_homicide, coords = c("Longitude", "Latitude"))
st_crs(crimes_homicide_sf) <- 4326 # set the coordinate reference system
crimes_homicide_sf
```

```
## Simple feature collection with 675 features and 20 fields
## Geometry type: POINT
## Dimension:     XY
## Bounding box:  xmin: -87.83662 ymin: 41.65306 xmax: -87.53287 ymax: 42.02164
## Geodetic CRS:  WGS 84
## # A tibble: 675 × 21
##          ID `Case Number` Date       Block    IUCR  `Primary Type` Description  
##  *    <dbl> <chr>         <chr>      <chr>    <chr> <chr>          <chr>        
##  1 10826397 JA119425      01/18/201… 023XX W… 0142  HOMICIDE       RECKLESS HOM…
##  2 10836558 JA138326      02/01/201… 013XX S… 0142  HOMICIDE       RECKLESS HOM…
##  3 11177987 JA549346      12/14/201… 038XX W… 0142  HOMICIDE       RECKLESS HOM…
##  4    23059 JA100252      01/01/201… 046XX N… 0110  HOMICIDE       FIRST DEGREE…
##  5    23060 JA100278      01/01/201… 046XX W… 0110  HOMICIDE       FIRST DEGREE…
##  6    23061 JA102602      01/03/201… 034XX W… 0110  HOMICIDE       FIRST DEGREE…
##  7    23062 JA103468      01/03/201… 032XX W… 0110  HOMICIDE       FIRST DEGREE…
##  8    23063 JA102602      01/04/201… 034XX W… 0110  HOMICIDE       FIRST DEGREE…
##  9    23064 JA103468      01/04/201… 032XX W… 0110  HOMICIDE       FIRST DEGREE…
## 10    23066 HZ564892      01/06/201… 086XX S… 0110  HOMICIDE       FIRST DEGREE…
## # … with 665 more rows, and 14 more variables: Location Description <chr>,
## #   Arrest <lgl>, Domestic <lgl>, Beat <chr>, District <chr>, Ward <dbl>,
## #   Community Area <dbl>, FBI Code <chr>, X Coordinate <dbl>,
## #   Y Coordinate <dbl>, Year <dbl>, Updated On <chr>, Location <chr>,
## #   geometry <POINT [°]>
```
…
<img src="geoviz-slides_files/figure-html/crimes-sf-plot-1.png" width="864" />

---

# Fill (choropleths)

```r
fb_state <- read_csv(file = here("data", "foreign-born.csv"))
fb_state
```

```
## # A tibble: 52 × 6
##    GEOID NAME                    total   native  foreign pct_foreign
##    <chr> <chr>                   <dbl>    <dbl>    <dbl>       <dbl>
##  1 01    Alabama               4876250  4703303   172947      0.0355
##  2 02    Alaska                 737068   679401    57667      0.0782
##  3 04    Arizona               7050299  6109648   940651      0.133 
##  4 05    Arkansas              2999370  2854323   145047      0.0484
##  5 06    California           39283497 28736287 10547210      0.268 
##  6 08    Colorado              5610349  5063836   546513      0.0974
##  7 10    Delaware               957248   865775    91473      0.0956
##  8 11    District of Columbia   692683   597618    95065      0.137 
##  9 09    Connecticut           3575074  3054123   520951      0.146 
## 10 12    Florida              20901636 16576836  4324800      0.207 
## # … with 42 more rows
```
…
